{
	"credit": "Made with Blockbench",
	"ambientocclusion": false,
	"texture_size": [16, 24],
	"textures": {
		"particle": "#rail"
	},
	"elements": [
		{
			"from": [0, 17, 8],
			"to": [16, 17, 16],
			"rotation": {"angle": -45, "axis": "x", "origin": [8, 17, 16]},
			"faces": {
				"up": {"uv": [0, 10.66667, 16, 16], "texture": "#rail"},
				"down": {"uv": [0, 16, 16, 10.66667], "texture": "#rail"}
			}
		},
		{
			"from": [0, 9.02, 3.5],
			"to": [16, 9.02, 11.5],
			"rotation": {"angle": -45, "axis": "x", "origin": [8, 9, 8]},
			"faces": {
				"up": {"uv": [0, 5.33333, 16, 10.66667], "texture": "#rail"},
				"down": {"uv": [0, 10.66667, 16, 5.33333], "texture": "#rail"}
			}
		},
		{
			"from": [0, 1, 0],
			"to": [16, 1, 7],
			"rotation": {"angle": -45, "axis": "x", "origin": [8, 1, 0]},
			"faces": {
				"up": {"uv": [0, 0.66667, 16, 5.33333], "texture": "#rail"},
				"down": {"uv": [0, 5.33333, 16, 0.66667], "texture": "#rail"}
			}
		}
	]
}