{
	"credit": "Made with Blockbench",
	"parent": "block/block",
	"textures": {
		"particle": "block/sea_pickle",
		"all": "block/sea_pickle"
	},
	"elements": [
		{
			"from": [6, 0, 9],
			"to": [10, 6, 13],
			"faces": {
				"north": {"uv": [4, 5, 8, 11], "texture": "#all"},
				"east": {"uv": [12, 5, 16, 11], "texture": "#all"},
				"south": {"uv": [0, 5, 4, 11], "texture": "#all"},
				"west": {"uv": [8, 5, 12, 11], "texture": "#all"},
				"up": {"uv": [4, 1, 8, 5], "texture": "#all"},
				"down": {"uv": [8, 1, 12, 5], "texture": "#all", "cullface": "down"}
			}
		},
		{
			"from": [6, 5.95, 9],
			"to": [10, 5.95, 13],
			"faces": {
				"up": {"uv": [8, 1, 12, 5], "texture": "#all"}
			}
		},
		{
			"from": [2, 0, 2],
			"to": [6, 4, 6],
			"faces": {
				"north": {"uv": [4, 5, 8, 9], "texture": "#all"},
				"east": {"uv": [12, 5, 16, 9], "texture": "#all"},
				"south": {"uv": [0, 5, 4, 9], "texture": "#all"},
				"west": {"uv": [8, 5, 12, 9], "texture": "#all"},
				"up": {"uv": [4, 1, 8, 5], "texture": "#all"},
				"down": {"uv": [8, 1, 12, 5], "texture": "#all", "cullface": "down"}
			}
		},
		{
			"from": [2, 3.95, 2],
			"to": [6, 3.95, 6],
			"faces": {
				"up": {"uv": [8, 1, 12, 5], "texture": "#all"}
			}
		},
		{
			"from": [8, 0, 4],
			"to": [12, 6, 8],
			"faces": {
				"north": {"uv": [4, 5, 8, 11], "texture": "#all"},
				"east": {"uv": [12, 5, 16, 11], "texture": "#all"},
				"south": {"uv": [0, 5, 4, 11], "texture": "#all"},
				"west": {"uv": [8, 5, 12, 11], "texture": "#all"},
				"up": {"uv": [4, 1, 8, 5], "texture": "#all"},
				"down": {"uv": [8, 1, 12, 5], "texture": "#all", "cullface": "down"}
			}
		},
		{
			"from": [8, 5.95, 4],
			"to": [12, 5.95, 8],
			"faces": {
				"up": {"uv": [8, 1, 12, 5], "texture": "#all"}
			}
		},
		{
			"from": [7, 3.95, 11],
			"to": [9, 8.95, 11],
			"shade": false,
			"rotation": {"angle": 45, "axis": "y", "origin": [8, 8, 11]},
			"faces": {
				"north": {"uv": [1, 0, 3, 5], "texture": "#all"},
				"south": {"uv": [3, 0, 1, 5], "texture": "#all"}
			}
		},
		{
			"from": [8, 3.95, 10],
			"to": [8, 8.95, 12],
			"shade": false,
			"rotation": {"angle": 45, "axis": "y", "origin": [8, 8, 11]},
			"faces": {
				"east": {"uv": [15, 0, 13, 5], "texture": "#all"},
				"west": {"uv": [13, 0, 15, 5], "texture": "#all"}
			}
		},
		{
			"from": [3, 1.95, 4],
			"to": [5, 6.95, 4],
			"shade": false,
			"rotation": {"angle": 45, "axis": "y", "origin": [4, 8, 4]},
			"faces": {
				"north": {"uv": [1, 0, 3, 5], "texture": "#all"},
				"south": {"uv": [3, 0, 1, 5], "texture": "#all"}
			}
		},
		{
			"from": [4, 1.95, 3],
			"to": [4, 6.95, 5],
			"shade": false,
			"rotation": {"angle": 45, "axis": "y", "origin": [4, 8, 4]},
			"faces": {
				"east": {"uv": [15, 0, 13, 5], "texture": "#all"},
				"west": {"uv": [13, 0, 15, 5], "texture": "#all"}
			}
		},
		{
			"from": [9, 3.95, 6],
			"to": [11, 8.95, 6],
			"shade": false,
			"rotation": {"angle": 45, "axis": "y", "origin": [10, 8, 6]},
			"faces": {
				"north": {"uv": [1, 0, 3, 5], "texture": "#all"},
				"south": {"uv": [3, 0, 1, 5], "texture": "#all"}
			}
		},
		{
			"from": [10, 3.95, 5],
			"to": [10, 8.95, 7],
			"shade": false,
			"rotation": {"angle": 45, "axis": "y", "origin": [10, 8, 6]},
			"faces": {
				"east": {"uv": [15, 0, 13, 5], "texture": "#all"},
				"west": {"uv": [13, 0, 15, 5], "texture": "#all"}
			}
		}
	]
}