{
	
"entity.player.attack.strong": { "sounds": [
    { "name": "murasama/strong1", "volume": 4, "pitch": 1 },
    { "name": "murasama/strong2", "volume": 4, "pitch": 1 },
    { "name": "murasama/strong3", "volume": 4, "pitch": 1 },
    { "name": "murasama/strong4", "volume": 4, "pitch": 1 }
	
], "replace": "true" },

"item.armor.equip_netherite": { "sounds": [
    { "name": "murasama/set1", "volume": 4, "pitch": 1 },
    { "name": "murasama/set2", "volume": 4, "pitch": 1 },
    { "name": "murasama/set3", "volume": 4, "pitch": 1 },
    { "name": "murasama/set4", "volume": 4, "pitch": 1 },
    { "name": "murasama/set5", "volume": 4, "pitch": 1 },
    { "name": "murasama/set6", "volume": 4, "pitch": 1 },
    { "name": "murasama/set7", "volume": 4, "pitch": 1 }	
], "replace": "true" },

"entity.player.attack.crit": { "sounds": [
    { "name": "murasama/crit1", "volume": 4, "pitch": 1 },
    { "name": "murasama/crit2", "volume": 4, "pitch": 1 },
    { "name": "murasama/crit3", "volume": 4, "pitch": 1 },
    { "name": "murasama/crit4", "volume": 4, "pitch": 1 },
	{ "name": "murasama/crit5", "volume": 4, "pitch": 1 },
    { "name": "murasama/crit6", "volume": 4, "pitch": 1 },
    { "name": "murasama/crit7", "volume": 4, "pitch": 1 },
    { "name": "murasama/crit8", "volume": 4, "pitch": 1 }
	
], "replace": "true" },

"entity.player.attack.weak": { "sounds": [
    { "name": "murasama/weak1", "volume": 4, "pitch": 1 },
    { "name": "murasama/weak2", "volume": 4, "pitch": 1 },
    { "name": "murasama/weak3", "volume": 4, "pitch": 1 },
    { "name": "murasama/weak4", "volume": 4, "pitch": 1 },
	{ "name": "murasama/weak5", "volume": 4, "pitch": 1 },
    { "name": "murasama/weak6", "volume": 4, "pitch": 1 },
    { "name": "murasama/weak7", "volume": 4, "pitch": 1 },
    { "name": "murasama/weak8", "volume": 4, "pitch": 1 }
	
], "replace": "true" },

"entity.player.attack.knockback": { "sounds": [
    { "name": "murasama/swoosh1", "volume": 4, "pitch": 1 },
    { "name": "murasama/swoosh2", "volume": 4, "pitch": 1 },
    { "name": "murasama/swoosh3", "volume": 4, "pitch": 1 },
	{ "name": "murasama/swoosh3", "volume": 4, "pitch": 1 },
    { "name": "murasama/swoosh4", "volume": 4, "pitch": 1 }
	
], "replace": "true" },

"entity.player.attack.sweep": { "sounds": [
    { "name": "murasama/slash1", "volume": 4, "pitch": 1 },
    { "name": "murasama/slash2", "volume": 4, "pitch": 1 },
    { "name": "murasama/slash3", "volume": 4, "pitch": 1 },
    { "name": "murasama/slash4", "volume": 4, "pitch": 1 },
	{ "name": "murasama/slash5", "volume": 4, "pitch": 1 },
    { "name": "murasama/slash6", "volume": 4, "pitch": 1 },
    { "name": "murasama/slash7", "volume": 4, "pitch": 1 },
    { "name": "murasama/slash8", "volume": 4, "pitch": 1 },
	{ "name": "murasama/slash9", "volume": 4, "pitch": 1 },
    { "name": "murasama/slash10", "volume": 4, "pitch": 1 },
    { "name": "murasama/slash11", "volume": 4, "pitch": 1 },
    { "name": "murasama/slash12", "volume": 4, "pitch": 1 }
	
], "replace": "true" },

"item.armor.equip_generic": { "sounds": [
    { "name": "murasama/equip1", "volume": 4, "pitch": 1 },
    { "name": "murasama/equip2", "volume": 4, "pitch": 1 },
    { "name": "murasama/equip3", "volume": 4, "pitch": 1 },
	{ "name": "murasama/equip4", "volume": 4, "pitch": 1 },
    { "name": "murasama/equip5", "volume": 4, "pitch": 1 },
	{ "name": "murasama/equip6", "volume": 4, "pitch": 1 },
	{ "name": "murasama/equip7", "volume": 4, "pitch": 1 },
    { "name": "murasama/equip8", "volume": 4, "pitch": 1 },
	{ "name": "murasama/equip9", "volume": 4, "pitch": 1 },
    { "name": "murasama/equip10", "volume": 4, "pitch": 1 },
	
	{ "name": "murasama/uleash1", "volume": 4, "pitch": 1 },
    { "name": "murasama/uleash2", "volume": 4, "pitch": 1 }
	
], "replace": "true" },

"item.shield.block": { "sounds": [
    { "name": "murasama/deflect1", "volume": 4, "pitch": 1 },
    { "name": "murasama/deflect2", "volume": 4, "pitch": 1 },
    { "name": "murasama/deflect3", "volume": 4, "pitch": 1 },
    { "name": "murasama/deflect4", "volume": 4, "pitch": 1 },
    { "name": "murasama/deflect5", "volume": 4, "pitch": 1 }
	
], "replace": "true" }


 




}