{
  "minecraft:overworld": {
    "dayDuration": 36000,
    "nightDuration": 36000
  },
  "minecraft:the_nether": {
    "dayDuration": 36000,
    "nightDuration": 36000
  },
  "minecraft:the_end": {
    "dayDuration": 36000,
    "nightDuration": 36000
  }
}