{
	"credit": " zndrmn ",
	"texture_size": [64, 64],
	"textures": {
		"0": "item/horse_armor_leather",
		"particle": "item/horse_armor_leather"
	},
	"elements": [
		{
			"name": "body",
			"from": [2.95, 0.2, -3.05],
			"to": [13.05, 10.3, 19.05],
			"faces": {
				"north": {"uv": [5.5, 13.5, 8, 16], "texture": "#0", "tintindex": 0},
				"east": {"uv": [0, 13.5, 5.5, 16], "texture": "#0", "tintindex": 0},
				"south": {"uv": [13.5, 13.5, 16, 16], "texture": "#0", "tintindex": 0},
				"west": {"uv": [8, 13.5, 13.5, 16], "texture": "#0", "tintindex": 0},
				"up": {"uv": [8, 13.5, 5.5, 8], "texture": "#0", "tintindex": 0},
				"down": {"uv": [10.5, 8, 8, 13.5], "texture": "#0", "tintindex": 0}
			}
		},
		{
			"name": "body_inner",
			"from": [13.052, 0.202, -3.048],
			"to": [2.956, 10.298, 19.048],
			"faces": {
				"north": {"uv": [5.5, 13.5, 8, 16], "texture": "#0", "tintindex": 0},
				"east": {"uv": [0, 13.5, 5.5, 16], "texture": "#0", "tintindex": 0},
				"south": {"uv": [13.5, 13.5, 16, 16], "texture": "#0", "tintindex": 0},
				"west": {"uv": [8, 13.5, 13.5, 16], "texture": "#0", "tintindex": 0},
				"up": {"uv": [8, 13.5, 5.5, 8], "texture": "#0", "tintindex": 0},
				"down": {"uv": [10.5, 8, 8, 13.5], "texture": "#0", "tintindex": 0}
			}
		},
		{
			"name": "saddle",
			"from": [2.5, 0.75, 4.5],
			"to": [13.5, 10.75, 14.5],
			"faces": {
				"north": {"uv": [8.75, 2.25, 11.25, 4.5], "texture": "#0", "tintindex": 0},
				"east": {"uv": [6.5, 2.25, 8.75, 4.5], "texture": "#0", "tintindex": 0},
				"south": {"uv": [13.5, 2.25, 16, 4.5], "texture": "#0", "tintindex": 0},
				"west": {"uv": [11.25, 2.25, 13.5, 4.5], "texture": "#0", "tintindex": 0},
				"up": {"uv": [11.25, 2.25, 8.75, 0], "texture": "#0", "tintindex": 0},
				"down": {"uv": [13.75, 0, 11.25, 2.25], "texture": "#0", "tintindex": 0}
			}
		},
		{
			"name": "saddle_inner",
			"from": [13.502, 0.752, 4.502],
			"to": [2.506, 10.748, 14.498],
			"faces": {
				"north": {"uv": [8.75, 2.25, 11.25, 4.5], "texture": "#0", "tintindex": 0},
				"east": {"uv": [6.5, 2.25, 8.75, 4.5], "texture": "#0", "tintindex": 0},
				"south": {"uv": [13.5, 2.25, 16, 4.5], "texture": "#0", "tintindex": 0},
				"west": {"uv": [11.25, 2.25, 13.5, 4.5], "texture": "#0", "tintindex": 0},
				"up": {"uv": [11.25, 2.25, 8.75, 0], "texture": "#0", "tintindex": 0},
				"down": {"uv": [13.75, 0, 11.25, 2.25], "texture": "#0", "tintindex": 0}
			}
		}
	],
	"display": {
		"thirdperson_righthand": {
			"rotation": [180, 0, 90],
			"translation": [-0.5, -2, 2]
		},
		"thirdperson_lefthand": {
			"rotation": [180, 0, 90],
			"translation": [-0.5, -2, 2]
		},
		"firstperson_righthand": {
			"rotation": [180, 0, 90],
			"translation": [0, 0, 4.25]
		},
		"firstperson_lefthand": {
			"rotation": [180, 0, 90],
			"translation": [0, 0, 4.25]
		},
		"ground": {
			"translation": [0, 5, 0]
		},
		"gui": {
			"rotation": [30, -135, 0],
			"translation": [0, 1.5, 0],
			"scale": [0.65, 0.65, 0.65]
		},
		"fixed": {
			"rotation": [0, 90, 0],
			"translation": [0, 1.5, 0],
			"scale": [0.65, 0.65, 0.65]
		}
	},
	"groups": [
		{
			"name": "body",
			"origin": [0, 13, 6],
			"color": 0,
			"children": [0, 1]
		},
		{
			"name": "saddle",
			"origin": [0, 13, 6],
			"color": 0,
			"children": [2, 3]
		}
	]
}