{
  "main": {
    "enabled": true,
    "varyPitch": true,
    "maxNoteChange": 2,
    "minNoteChange": -2,
    "noDelayBetweenSongs": true,
    "playKeybindReplacesCurrentSong": false,
    "skipKeybindStartsNextSong": false,
    "musicType": "AUTOMATIC",
    "pauseMusicWhenGamePaused": true,
    "stopMusicWhenSwitchingDimensions": true,
    "stopMusicWhenLeftGame": true,
    "enableDebugInfo": false
  },
  "musicToast": {
    "enabled": false,
    "showArtistName": true,
    "showAlbumName": true,
    "showAlbumCover": true,
    "useDiscItemAsAlbumCover": false,
    "hideJukeboxHotbarMessage": true,
    "useHotbarInsteadOfToast": false,
    "toastMakesSound": false,
    "remainForFullSong": false,
    "toastDisplayTime": 4000
  },
  "menu": {
    "enabled": true,
    "minSongDelay": 20,
    "maxSongDelay": 600,
    "volume": 100.0
  },
  "creative": {
    "enabled": true,
    "minSongDelay": 12000,
    "maxSongDelay": 24000,
    "volume": 100.0
  },
  "game": {
    "enabled": true,
    "minSongDelay": 12000,
    "maxSongDelay": 24000,
    "creativeMusicPlaysInSurvival": false,
    "volume": 100.0
  },
  "underwater": {
    "enabled": true,
    "minSongDelay": 12000,
    "maxSongDelay": 24000,
    "volume": 100.0
  },
  "end": {
    "enabled": true,
    "minSongDelay": 6000,
    "maxSongDelay": 24000,
    "volume": 100.0
  },
  "nether": {
    "enabled": true,
    "minSongDelay": 12000,
    "maxSongDelay": 24000,
    "volume": 100.0
  },
  "credits": {
    "enabled": true,
    "volume": 100.0
  },
  "jukebox": {
    "mono": true,
    "distance": 80,
    "elevenReplaces11": false,
    "dogReplacesCat": true,
    "droopyLikesYourFaceReplacesWard": true,
    "turnDownMusic": true,
    "volume": 400.0
  }
}