{
  "enableHat": true,
  "enableJacket": true,
  "enableLeftSleeve": true,
  "enableRightSleeve": true,
  "enableLeftPants": true,
  "enableRightPants": true,
  "baseVoxelSize": 1.097,
  "bodyVoxelWidthSize": 1.082,
  "headVoxelSize": 1.0810001,
  "renderDistanceLOD": 14,
  "enableSkulls": true,
  "enableSkullsItems": true,
  "skullVoxelSize": 1.1,
  "fastRender": true,
  "firstPersonPixelScaling": 1.1
}