{
	"credit": "Made with Blockbench",
	"parent": "minecraft:block/orientable",
	"textures": {
		"top": "block/blast_furnace_top",
		"front": "block/blast_furnace_front",
		"side": "block/blast_furnace_side"
	},
	"elements": [
		{
			"from": [0, 0, 0],
			"to": [16, 1, 1],
			"faces": {
				"north": {"uv": [0, 15, 16, 16], "texture": "#front"},
				"east": {"uv": [15, 15, 16, 16], "texture": "#side"},
				"south": {"uv": [0, 15, 16, 16], "texture": "#top"},
				"west": {"uv": [0, 15, 1, 16], "texture": "#side"},
				"up": {"uv": [0, 0, 16, 1], "texture": "#top"},
				"down": {"uv": [0, 15, 16, 16], "texture": "#top"}
			}
		},
		{
			"from": [0, 0, 15],
			"to": [16, 1, 16],
			"faces": {
				"north": {"uv": [0, 0, 16, 1], "texture": "#top"},
				"east": {"uv": [0, 15, 1, 16], "texture": "#side"},
				"south": {"uv": [0, 15, 16, 16], "texture": "#side"},
				"west": {"uv": [15, 15, 16, 16], "texture": "#side"},
				"up": {"uv": [0, 15, 16, 16], "texture": "#top"},
				"down": {"uv": [0, 0, 16, 1], "texture": "#top"}
			}
		},
		{
			"from": [15, 0, 1],
			"to": [16, 1, 15],
			"faces": {
				"north": {"uv": [0, 15, 1, 16], "texture": "#top"},
				"east": {"uv": [1, 15, 15, 16], "texture": "#side"},
				"south": {"uv": [15, 15, 16, 16], "texture": "#side"},
				"west": {"uv": [15, 15, 16, 1], "rotation": 270, "texture": "#top"},
				"up": {"uv": [15, 1, 16, 15], "texture": "#top"},
				"down": {"uv": [15, 1, 16, 15], "texture": "#top"}
			}
		},
		{
			"from": [0, 0, 1],
			"to": [1, 1, 15],
			"faces": {
				"north": {"uv": [15, 15, 16, 16], "texture": "#top"},
				"east": {"uv": [0, 1, 1, 15], "rotation": 270, "texture": "#top"},
				"south": {"uv": [0, 15, 1, 16], "texture": "#side"},
				"west": {"uv": [0, 1, 1, 15], "rotation": 270, "texture": "#top"},
				"up": {"uv": [0, 1, 1, 15], "texture": "#top"},
				"down": {"uv": [0, 1, 1, 15], "texture": "#top"}
			}
		},
		{
			"from": [0, 1, 0],
			"to": [1, 15, 1],
			"faces": {
				"north": {"uv": [15, 1, 16, 15], "texture": "#front"},
				"east": {"uv": [15, 1, 16, 15], "texture": "#side"},
				"south": {"uv": [0, 1, 1, 15], "texture": "#side"},
				"west": {"uv": [0, 1, 1, 15], "texture": "#side"},
				"up": {"uv": [0, 0, 1, 1], "texture": "#top"},
				"down": {"uv": [0, 15, 1, 16], "texture": "#top"}
			}
		},
		{
			"from": [15, 1, 0],
			"to": [16, 15, 1],
			"faces": {
				"north": {"uv": [0, 1, 1, 15], "texture": "#front"},
				"east": {"uv": [15, 1, 16, 15], "texture": "#side"},
				"south": {"uv": [15, 1, 16, 15], "texture": "#side"},
				"west": {"uv": [0, 1, 1, 15], "texture": "#side"},
				"up": {"uv": [15, 0, 16, 1], "texture": "#top"},
				"down": {"uv": [15, 15, 16, 16], "texture": "#top"}
			}
		},
		{
			"from": [0.25, 0.5, 1],
			"to": [15.75, 7, 15.75],
			"faces": {
				"north": {"uv": [0.25, 9, 15.75, 15.5], "texture": "#front"},
				"east": {"uv": [0.25, 9, 15, 15.5], "texture": "#side"},
				"south": {"uv": [0.25, 9, 15.75, 15.5], "texture": "#side"},
				"west": {"uv": [1, 9, 15.75, 15.5], "texture": "#side"},
				"up": {"uv": [0.25, 1, 15.75, 15.75], "texture": "#top"},
				"down": {"uv": [0.25, 0.25, 15.75, 15], "texture": "#top"}
			}
		},
		{
			"from": [0.5, 7, 1],
			"to": [15.5, 15.5, 15.5],
			"faces": {
				"north": {"uv": [0.5, 0.5, 15.5, 9], "texture": "#front"},
				"east": {"uv": [0.5, 0.5, 15, 9], "texture": "#side"},
				"south": {"uv": [0.5, 0.5, 15.5, 9], "texture": "#side"},
				"west": {"uv": [1, 0.5, 15.5, 9], "texture": "#side"},
				"up": {"uv": [0.5, 1, 15.5, 15.5], "texture": "#top"},
				"down": {"uv": [0.5, 0.5, 15.5, 15], "texture": "#top"}
			}
		},
		{
			"from": [0, 1, 15],
			"to": [1, 15, 16],
			"faces": {
				"north": {"uv": [15, 1, 16, 15], "texture": "#front"},
				"east": {"uv": [0, 1, 1, 15], "texture": "#side"},
				"south": {"uv": [0, 1, 1, 15], "texture": "#side"},
				"west": {"uv": [15, 1, 16, 15], "texture": "#side"},
				"up": {"uv": [0, 15, 1, 16], "texture": "#top"},
				"down": {"uv": [0, 0, 1, 1], "texture": "#top"}
			}
		},
		{
			"from": [15, 1, 15],
			"to": [16, 15, 16],
			"faces": {
				"north": {"uv": [0, 1, 1, 15], "texture": "#front"},
				"east": {"uv": [0, 1, 1, 15], "texture": "#side"},
				"south": {"uv": [15, 1, 16, 15], "texture": "#side"},
				"west": {"uv": [15, 1, 16, 15], "texture": "#side"},
				"up": {"uv": [15, 15, 16, 16], "texture": "#top"},
				"down": {"uv": [15, 0, 16, 1], "texture": "#top"}
			}
		},
		{
			"from": [1, 0, 1],
			"to": [2, 1, 2],
			"faces": {
				"north": {"uv": [1, 1, 2, 2], "texture": "#top"},
				"east": {"uv": [1, 1, 2, 2], "texture": "#top"},
				"south": {"uv": [1, 1, 2, 2], "texture": "#top"},
				"west": {"uv": [1, 1, 2, 2], "texture": "#top"},
				"up": {"uv": [1, 1, 2, 2], "texture": "#top"},
				"down": {"uv": [1, 1, 2, 2], "texture": "#top"}
			}
		},
		{
			"from": [14, 0, 1],
			"to": [15, 1, 2],
			"faces": {
				"north": {"uv": [14, 1, 15, 2], "texture": "#top"},
				"east": {"uv": [14, 1, 15, 2], "texture": "#top"},
				"south": {"uv": [14, 1, 15, 2], "texture": "#top"},
				"west": {"uv": [14, 1, 15, 2], "texture": "#top"},
				"up": {"uv": [14, 1, 15, 2], "rotation": 180, "texture": "#top"},
				"down": {"uv": [14, 1, 15, 2], "texture": "#top"}
			}
		},
		{
			"from": [14, 0, 14],
			"to": [15, 1, 15],
			"faces": {
				"north": {"uv": [14, 14, 15, 15], "texture": "#top"},
				"east": {"uv": [14, 14, 15, 15], "texture": "#top"},
				"south": {"uv": [14, 14, 15, 15], "texture": "#top"},
				"west": {"uv": [14, 14, 15, 15], "texture": "#top"},
				"up": {"uv": [14, 14, 15, 15], "rotation": 180, "texture": "#top"},
				"down": {"uv": [14, 14, 15, 15], "texture": "#top"}
			}
		},
		{
			"from": [1, 0, 14],
			"to": [2, 1, 15],
			"faces": {
				"north": {"uv": [1, 14, 2, 15], "texture": "#top"},
				"east": {"uv": [1, 14, 2, 15], "texture": "#top"},
				"south": {"uv": [1, 14, 2, 15], "texture": "#top"},
				"west": {"uv": [1, 14, 2, 15], "texture": "#top"},
				"up": {"uv": [1, 14, 2, 15], "rotation": 180, "texture": "#top"},
				"down": {"uv": [1, 14, 2, 15], "texture": "#top"}
			}
		},
		{
			"from": [15, 15, 0],
			"to": [16, 16, 16],
			"faces": {
				"north": {"uv": [0, 0, 1, 1], "texture": "#front"},
				"east": {"uv": [0, 0, 16, 1], "texture": "#side"},
				"south": {"uv": [15, 0, 16, 1], "texture": "#side"},
				"west": {"uv": [15, 0, 16, 16], "rotation": 270, "texture": "#top"},
				"up": {"uv": [15, 0, 16, 16], "texture": "#top"},
				"down": {"uv": [15, 0, 16, 16], "rotation": 90, "texture": "#side"}
			}
		},
		{
			"from": [1, 15, 15],
			"to": [15, 16, 16],
			"faces": {
				"north": {"uv": [15, 15, 1, 16], "texture": "#top"},
				"east": {"uv": [0, 0, 1, 1], "texture": "#side"},
				"south": {"uv": [1, 0, 15, 1], "texture": "#side"},
				"west": {"uv": [15, 0, 16, 1], "texture": "#side"},
				"up": {"uv": [1, 15, 15, 16], "texture": "#top"},
				"down": {"uv": [1, 0, 15, 1], "texture": "#side"}
			}
		},
		{
			"from": [1, 15, 0],
			"to": [15, 16, 1],
			"faces": {
				"north": {"uv": [1, 0, 15, 1], "texture": "#front"},
				"east": {"uv": [15, 0, 16, 1], "texture": "#side"},
				"south": {"uv": [1, 0, 15, 1], "texture": "#top"},
				"west": {"uv": [0, 0, 1, 1], "texture": "#side"},
				"up": {"uv": [1, 0, 15, 1], "texture": "#top"},
				"down": {"uv": [1, 15, 15, 16], "texture": "#front"}
			}
		},
		{
			"from": [0, 15, 0],
			"to": [1, 16, 16],
			"faces": {
				"north": {"uv": [15, 0, 16, 1], "texture": "#front"},
				"east": {"uv": [0, 0, 1, 16], "rotation": 270, "texture": "#top"},
				"south": {"uv": [0, 0, 1, 1], "texture": "#side"},
				"west": {"uv": [0, 0, 16, 1], "texture": "#side"},
				"up": {"uv": [0, 0, 1, 16], "texture": "#top"},
				"down": {"uv": [0, 0, 1, 16], "rotation": 90, "texture": "#side"}
			}
		},
		{
			"from": [0, 12, 1],
			"to": [0.5, 13, 4],
			"faces": {
				"north": {"uv": [1, 3, 1.5, 4], "texture": "#side"},
				"east": {"uv": [1, 3, 4, 4], "texture": "#missing"},
				"south": {"uv": [3, 3, 3.5, 4], "texture": "#side"},
				"west": {"uv": [1, 3, 4, 4], "texture": "#side"},
				"up": {"uv": [1, 3, 4, 3.5], "rotation": 90, "texture": "#side"},
				"down": {"uv": [4, 3, 1, 3.5], "rotation": 90, "texture": "#side"}
			}
		},
		{
			"from": [0, 12, 12],
			"to": [0.5, 13, 15],
			"faces": {
				"north": {"uv": [12, 3, 12.5, 4], "texture": "#side"},
				"east": {"uv": [12, 3, 15, 4], "texture": "#missing"},
				"south": {"uv": [14, 3, 14.5, 4], "texture": "#side"},
				"west": {"uv": [12, 3, 15, 4], "texture": "#side"},
				"up": {"uv": [12, 3, 15, 3.5], "rotation": 90, "texture": "#side"},
				"down": {"uv": [15, 3, 12, 3.5], "rotation": 90, "texture": "#side"}
			}
		},
		{
			"from": [0, 13, 3],
			"to": [0.5, 15, 4],
			"faces": {
				"north": {"uv": [3, 2, 3.5, 4], "texture": "#side"},
				"east": {"uv": [3, 2, 4, 4], "texture": "#side"},
				"south": {"uv": [3, 2, 3.5, 4], "texture": "#side"},
				"west": {"uv": [3, 2, 4, 4], "texture": "#side"},
				"up": {"uv": [3, 2, 3.5, 3], "texture": "#side"},
				"down": {"uv": [3, 3, 3.5, 4], "texture": "#side"}
			}
		},
		{
			"from": [0, 13, 12],
			"to": [0.5, 15, 13],
			"faces": {
				"north": {"uv": [12, 2, 12.5, 4], "texture": "#side"},
				"east": {"uv": [12, 2, 13, 4], "texture": "#side"},
				"south": {"uv": [12, 2, 12.5, 4], "texture": "#side"},
				"west": {"uv": [12, 2, 13, 4], "texture": "#side"},
				"up": {"uv": [12, 2, 12.5, 3], "texture": "#side"},
				"down": {"uv": [12, 3, 12.5, 4], "texture": "#side"}
			}
		},
		{
			"from": [1, 12, 15.5],
			"to": [4, 13, 16],
			"faces": {
				"north": {"uv": [1, 3, 4, 4], "texture": "#missing"},
				"east": {"uv": [3, 3, 3.5, 4], "texture": "#side"},
				"south": {"uv": [1, 3, 4, 4], "texture": "#side"},
				"west": {"uv": [1, 3, 1.5, 4], "texture": "#side"},
				"up": {"uv": [1, 3, 4, 3.5], "texture": "#side"},
				"down": {"uv": [4, 3, 1, 3.5], "rotation": 180, "texture": "#side"}
			}
		},
		{
			"from": [12, 12, 15.5],
			"to": [15, 13, 16],
			"faces": {
				"north": {"uv": [12, 3, 15, 4], "texture": "#missing"},
				"east": {"uv": [14, 3, 14.5, 4], "texture": "#side"},
				"south": {"uv": [12, 3, 15, 4], "texture": "#side"},
				"west": {"uv": [12, 3, 12.5, 4], "texture": "#side"},
				"up": {"uv": [12, 3, 15, 3.5], "texture": "#side"},
				"down": {"uv": [15, 3, 12, 3.5], "rotation": 180, "texture": "#side"}
			}
		},
		{
			"from": [3, 13, 15.5],
			"to": [4, 15, 16],
			"faces": {
				"north": {"uv": [3, 2, 4, 4], "texture": "#side"},
				"east": {"uv": [3, 2, 3.5, 4], "texture": "#side"},
				"south": {"uv": [3, 2, 4, 4], "texture": "#side"},
				"west": {"uv": [3, 2, 3.5, 4], "texture": "#side"},
				"up": {"uv": [3, 2, 3.5, 3], "rotation": 270, "texture": "#side"},
				"down": {"uv": [3, 3, 3.5, 4], "rotation": 90, "texture": "#side"}
			}
		},
		{
			"from": [12, 13, 15.5],
			"to": [13, 15, 16],
			"faces": {
				"north": {"uv": [12, 2, 13, 4], "texture": "#side"},
				"east": {"uv": [12, 2, 12.5, 4], "texture": "#side"},
				"south": {"uv": [12, 2, 13, 4], "texture": "#side"},
				"west": {"uv": [12, 2, 12.5, 4], "texture": "#side"},
				"up": {"uv": [12, 2, 12.5, 3], "rotation": 270, "texture": "#side"},
				"down": {"uv": [12, 3, 12.5, 4], "rotation": 90, "texture": "#side"}
			}
		},
		{
			"from": [15.5, 12, 12],
			"to": [16, 13, 15],
			"faces": {
				"north": {"uv": [3, 3, 3.5, 4], "texture": "#side"},
				"east": {"uv": [1, 3, 4, 4], "texture": "#side"},
				"south": {"uv": [1, 3, 1.5, 4], "texture": "#side"},
				"west": {"uv": [1, 3, 4, 4], "texture": "#missing"},
				"up": {"uv": [1, 3, 4, 3.5], "rotation": 270, "texture": "#side"},
				"down": {"uv": [4, 3, 1, 3.5], "rotation": 270, "texture": "#side"}
			}
		},
		{
			"from": [15.5, 12, 1],
			"to": [16, 13, 4],
			"faces": {
				"north": {"uv": [14, 3, 14.5, 4], "texture": "#side"},
				"east": {"uv": [12, 3, 15, 4], "texture": "#side"},
				"south": {"uv": [12, 3, 12.5, 4], "texture": "#side"},
				"west": {"uv": [12, 3, 15, 4], "texture": "#missing"},
				"up": {"uv": [12, 3, 15, 3.5], "rotation": 270, "texture": "#side"},
				"down": {"uv": [15, 3, 12, 3.5], "rotation": 270, "texture": "#side"}
			}
		},
		{
			"from": [15.5, 13, 12],
			"to": [16, 15, 13],
			"faces": {
				"north": {"uv": [3, 2, 3.5, 4], "texture": "#side"},
				"east": {"uv": [3, 2, 4, 4], "texture": "#side"},
				"south": {"uv": [3, 2, 3.5, 4], "texture": "#side"},
				"west": {"uv": [3, 2, 4, 4], "texture": "#side"},
				"up": {"uv": [3, 2, 3.5, 3], "rotation": 180, "texture": "#side"},
				"down": {"uv": [3, 3, 3.5, 4], "rotation": 180, "texture": "#side"}
			}
		},
		{
			"from": [15.5, 13, 3],
			"to": [16, 15, 4],
			"faces": {
				"north": {"uv": [12, 2, 12.5, 4], "texture": "#side"},
				"east": {"uv": [12, 2, 13, 4], "texture": "#side"},
				"south": {"uv": [12, 2, 12.5, 4], "texture": "#side"},
				"west": {"uv": [12, 2, 13, 4], "texture": "#side"},
				"up": {"uv": [12, 2, 12.5, 3], "rotation": 180, "texture": "#side"},
				"down": {"uv": [12, 3, 12.5, 4], "rotation": 180, "texture": "#side"}
			}
		},
		{
			"from": [1, 15, 1],
			"to": [2, 16, 2],
			"faces": {
				"north": {"uv": [1, 1, 2, 2], "texture": "#top"},
				"east": {"uv": [1, 1, 2, 2], "texture": "#top"},
				"south": {"uv": [1, 1, 2, 2], "texture": "#top"},
				"west": {"uv": [1, 1, 2, 2], "texture": "#top"},
				"up": {"uv": [1, 1, 2, 2], "texture": "#top"},
				"down": {"uv": [1, 1, 2, 2], "texture": "#top"}
			}
		},
		{
			"from": [14, 15, 1],
			"to": [15, 16, 2],
			"faces": {
				"north": {"uv": [14, 1, 15, 2], "texture": "#top"},
				"east": {"uv": [14, 1, 15, 2], "texture": "#top"},
				"south": {"uv": [14, 1, 15, 2], "texture": "#top"},
				"west": {"uv": [14, 1, 15, 2], "texture": "#top"},
				"up": {"uv": [14, 1, 15, 2], "rotation": 180, "texture": "#top"},
				"down": {"uv": [14, 1, 15, 2], "texture": "#top"}
			}
		},
		{
			"from": [14, 15, 14],
			"to": [15, 16, 15],
			"faces": {
				"north": {"uv": [14, 14, 15, 15], "texture": "#top"},
				"east": {"uv": [14, 14, 15, 15], "texture": "#top"},
				"south": {"uv": [14, 14, 15, 15], "texture": "#top"},
				"west": {"uv": [14, 14, 15, 15], "texture": "#top"},
				"up": {"uv": [14, 14, 15, 15], "rotation": 180, "texture": "#top"},
				"down": {"uv": [14, 14, 15, 15], "texture": "#top"}
			}
		},
		{
			"from": [1, 15, 14],
			"to": [2, 16, 15],
			"faces": {
				"north": {"uv": [1, 14, 2, 15], "texture": "#top"},
				"east": {"uv": [1, 14, 2, 15], "texture": "#top"},
				"south": {"uv": [1, 14, 2, 15], "texture": "#top"},
				"west": {"uv": [1, 14, 2, 15], "texture": "#top"},
				"up": {"uv": [1, 14, 2, 15], "rotation": 180, "texture": "#top"},
				"down": {"uv": [1, 14, 2, 15], "texture": "#top"}
			}
		},
		{
			"from": [1, 1, 0.25],
			"to": [3, 7, 1],
			"faces": {
				"north": {"uv": [13, 9, 15, 15], "texture": "#front"},
				"east": {"uv": [13, 9, 14, 15], "texture": "#front"},
				"south": {"uv": [13, 9, 15, 15], "texture": "#front"},
				"west": {"uv": [14, 9, 15, 15], "texture": "#front"},
				"up": {"uv": [13, 9, 15, 10], "texture": "#front"},
				"down": {"uv": [13, 14, 15, 15], "texture": "#front"}
			}
		},
		{
			"from": [13, 1, 0.25],
			"to": [15, 7, 1],
			"faces": {
				"north": {"uv": [1, 9, 3, 15], "texture": "#front"},
				"east": {"uv": [1, 9, 2, 15], "texture": "#front"},
				"south": {"uv": [1, 9, 3, 15], "texture": "#front"},
				"west": {"uv": [2, 9, 3, 15], "texture": "#front"},
				"up": {"uv": [1, 9, 3, 10], "texture": "#front"},
				"down": {"uv": [1, 14, 3, 15], "texture": "#front"}
			}
		},
		{
			"from": [3, 1, 0.25],
			"to": [13, 2, 1],
			"faces": {
				"north": {"uv": [3, 14, 13, 15], "texture": "#front"},
				"east": {"uv": [0, 0, 1, 1], "texture": "#missing"},
				"south": {"uv": [0, 0, 10, 1], "texture": "#missing"},
				"west": {"uv": [0, 0, 1, 1], "texture": "#missing"},
				"up": {"uv": [3, 14, 13, 15], "texture": "#front"},
				"down": {"uv": [0, 0, 10, 1], "texture": "#missing"}
			}
		},
		{
			"from": [1, 7, 0.5],
			"to": [3, 10, 1],
			"faces": {
				"north": {"uv": [13, 6, 15, 9], "texture": "#front"},
				"east": {"uv": [13, 6, 14, 9], "texture": "#front"},
				"south": {"uv": [13, 6, 15, 9], "texture": "#front"},
				"west": {"uv": [14, 6, 15, 9], "texture": "#front"},
				"up": {"uv": [13, 6, 15, 7], "texture": "#front"},
				"down": {"uv": [13, 8, 15, 9], "texture": "#front"}
			}
		},
		{
			"from": [13, 7, 0.5],
			"to": [15, 10, 1],
			"faces": {
				"north": {"uv": [1, 6, 3, 9], "texture": "#front"},
				"east": {"uv": [1, 6, 2, 9], "texture": "#front"},
				"south": {"uv": [1, 6, 3, 9], "texture": "#front"},
				"west": {"uv": [2, 6, 3, 9], "texture": "#front"},
				"up": {"uv": [1, 6, 3, 7], "texture": "#front"},
				"down": {"uv": [1, 8, 3, 9], "texture": "#front"}
			}
		},
		{
			"from": [1, 10, 0.5],
			"to": [15, 12, 1],
			"faces": {
				"north": {"uv": [1, 4, 15, 6], "texture": "#front"},
				"east": {"uv": [1, 4, 2, 6], "texture": "#front"},
				"south": {"uv": [1, 4, 15, 6], "texture": "#front"},
				"west": {"uv": [14, 4, 15, 6], "texture": "#front"},
				"up": {"uv": [1, 4, 15, 5], "texture": "#front"},
				"down": {"uv": [1, 5, 15, 6], "texture": "#front"}
			}
		},
		{
			"from": [4, 12, 0.5],
			"to": [12, 15, 1],
			"faces": {
				"north": {"uv": [4, 1, 12, 4], "texture": "#front"},
				"east": {"uv": [11, 1, 12, 4], "texture": "#front"},
				"south": {"uv": [4, 1, 12, 4], "texture": "#front"},
				"west": {"uv": [4, 1, 5, 4], "texture": "#front"},
				"up": {"uv": [4, 1, 12, 2], "texture": "#front"},
				"down": {"uv": [4, 3, 12, 4], "texture": "#front"}
			}
		},
		{
			"from": [1, 12, 0],
			"to": [4, 13, 1],
			"faces": {
				"north": {"uv": [12, 3, 15, 4], "texture": "#front"},
				"east": {"uv": [12, 3, 13, 4], "texture": "#front"},
				"south": {"uv": [12, 3, 15, 4], "texture": "#front"},
				"west": {"uv": [14, 3, 15, 4], "texture": "#front"},
				"up": {"uv": [12, 3, 15, 4], "texture": "#front"},
				"down": {"uv": [12, 3, 15, 4], "texture": "#front"}
			}
		},
		{
			"from": [12, 12, 0],
			"to": [15, 13, 1],
			"faces": {
				"north": {"uv": [1, 3, 4, 4], "texture": "#front"},
				"east": {"uv": [1, 3, 2, 4], "texture": "#front"},
				"south": {"uv": [1, 3, 4, 4], "texture": "#front"},
				"west": {"uv": [3, 3, 4, 4], "texture": "#front"},
				"up": {"uv": [1, 3, 4, 4], "texture": "#front"},
				"down": {"uv": [1, 3, 4, 4], "texture": "#front"}
			}
		},
		{
			"from": [3, 13, 0],
			"to": [4, 15, 1],
			"faces": {
				"north": {"uv": [12, 1, 13, 3], "texture": "#front"},
				"east": {"uv": [12, 1, 13, 3], "texture": "#front"},
				"south": {"uv": [12, 1, 13, 3], "texture": "#front"},
				"west": {"uv": [12, 1, 13, 3], "texture": "#front"},
				"up": {"uv": [12, 1, 13, 2], "texture": "#front"},
				"down": {"uv": [12, 1, 13, 2], "texture": "#front"}
			}
		},
		{
			"from": [12, 13, 0],
			"to": [13, 15, 1],
			"faces": {
				"north": {"uv": [3, 1, 4, 3], "texture": "#front"},
				"east": {"uv": [3, 1, 4, 3], "texture": "#front"},
				"south": {"uv": [3, 1, 4, 3], "texture": "#front"},
				"west": {"uv": [3, 1, 4, 3], "texture": "#front"},
				"up": {"uv": [3, 1, 4, 2], "texture": "#front"},
				"down": {"uv": [3, 1, 4, 2], "texture": "#front"}
			}
		},
		{
			"from": [1, 13, 0.5],
			"to": [3, 15, 1],
			"faces": {
				"north": {"uv": [13, 1, 15, 3], "texture": "#front"},
				"east": {"uv": [0, 0, 0.5, 2], "texture": "#missing"},
				"south": {"uv": [0, 0, 2, 2], "texture": "#missing"},
				"west": {"uv": [0, 0, 0.5, 2], "texture": "#missing"},
				"up": {"uv": [0, 0, 2, 0.5], "texture": "#missing"},
				"down": {"uv": [0, 0, 2, 0.5], "texture": "#missing"}
			}
		},
		{
			"from": [13, 13, 0.5],
			"to": [15, 15, 1],
			"faces": {
				"north": {"uv": [1, 1, 3, 3], "texture": "#front"},
				"east": {"uv": [0, 0, 0.5, 2], "texture": "#missing"},
				"south": {"uv": [0, 0, 2, 2], "texture": "#missing"},
				"west": {"uv": [0, 0, 0.5, 2], "texture": "#missing"},
				"up": {"uv": [0, 0, 2, 0.5], "texture": "#missing"},
				"down": {"uv": [0, 0, 2, 0.5], "texture": "#missing"}
			}
		},
		{
			"from": [3, 2, 0],
			"to": [13, 10, 1],
			"faces": {
				"north": {"uv": [3, 6, 13, 14], "texture": "#front"},
				"east": {"uv": [3, 6, 4, 14], "texture": "#front"},
				"south": {"uv": [3, 6, 13, 14], "texture": "#front"},
				"west": {"uv": [12, 6, 13, 14], "texture": "#front"},
				"up": {"uv": [3, 6, 13, 7], "texture": "#front"},
				"down": {"uv": [3, 13, 13, 14], "texture": "#front"}
			}
		},
		{
			"from": [4, 3, -0.5],
			"to": [12, 5, 0],
			"faces": {
				"north": {"uv": [4, 11, 12, 13], "texture": "#front"},
				"east": {"uv": [4, 11, 5, 13], "texture": "#front"},
				"south": {"uv": [4, 11, 12, 13], "texture": "#front"},
				"west": {"uv": [11, 11, 12, 13], "texture": "#front"},
				"up": {"uv": [4, 11, 12, 12], "texture": "#front"},
				"down": {"uv": [4, 12, 12, 13], "texture": "#front"}
			}
		},
		{
			"from": [10, 5, -0.5],
			"to": [12, 9, 0],
			"faces": {
				"north": {"uv": [4, 7, 6, 11], "texture": "#front"},
				"east": {"uv": [4, 7, 5, 11], "texture": "#front"},
				"south": {"uv": [4, 7, 6, 11], "texture": "#front"},
				"west": {"uv": [5, 7, 6, 11], "texture": "#front"},
				"up": {"uv": [4, 7, 6, 8], "texture": "#front"},
				"down": {"uv": [4, 10, 6, 11], "texture": "#front"}
			}
		},
		{
			"from": [4, 8, -0.5],
			"to": [10, 9, 0],
			"faces": {
				"north": {"uv": [6, 7, 12, 8], "texture": "#front"},
				"east": {"uv": [6, 7, 7, 8], "texture": "#front"},
				"south": {"uv": [6, 7, 12, 8], "texture": "#front"},
				"west": {"uv": [11, 7, 12, 8], "texture": "#front"},
				"up": {"uv": [6, 7, 12, 8], "texture": "#front"},
				"down": {"uv": [6, 7, 12, 8], "texture": "#front"}
			}
		},
		{
			"from": [4, 5, -0.5],
			"to": [5, 8, 0],
			"faces": {
				"north": {"uv": [11, 8, 12, 11], "texture": "#front"},
				"east": {"uv": [11, 8, 12, 11], "texture": "#front"},
				"south": {"uv": [11, 8, 12, 11], "texture": "#front"},
				"west": {"uv": [11, 8, 12, 11], "texture": "#front"},
				"up": {"uv": [11, 8, 12, 9], "texture": "#front"},
				"down": {"uv": [11, 10, 12, 11], "texture": "#front"}
			}
		},
		{
			"from": [6, 5, -0.5],
			"to": [7, 8, 0],
			"faces": {
				"north": {"uv": [9, 8, 10, 11], "texture": "#front"},
				"east": {"uv": [9, 8, 10, 11], "texture": "#front"},
				"south": {"uv": [9, 8, 10, 11], "texture": "#front"},
				"west": {"uv": [9, 8, 10, 11], "texture": "#front"},
				"up": {"uv": [9, 8, 10, 9], "texture": "#front"},
				"down": {"uv": [9, 10, 10, 11], "texture": "#front"}
			}
		},
		{
			"from": [8, 5, -0.5],
			"to": [9, 8, 0],
			"faces": {
				"north": {"uv": [7, 8, 8, 11], "texture": "#front"},
				"east": {"uv": [7, 8, 8, 11], "texture": "#front"},
				"south": {"uv": [7, 8, 8, 11], "texture": "#front"},
				"west": {"uv": [7, 8, 8, 11], "texture": "#front"},
				"up": {"uv": [7, 8, 8, 9], "texture": "#front"},
				"down": {"uv": [7, 10, 8, 11], "texture": "#front"}
			}
		}
	],
	"groups": [
		{
			"name": "group",
			"origin": [8, 8, 8],
			"color": 0,
			"children": [
				{
					"name": "group",
					"origin": [8, 8, 8],
					"color": 0,
					"children": [0, 1, 2, 3, 4, 5, 6, 7, 8, 9, 10, 11, 12, 13]
				},
				{
					"name": "group",
					"origin": [0, 0, 0],
					"color": 0,
					"children": [
						14,
						15,
						16,
						17,
						{
							"name": "group",
							"origin": [0, 0, 0],
							"color": 0,
							"children": [18, 19, 20, 21]
						},
						{
							"name": "group",
							"origin": [0, 0, 0],
							"color": 0,
							"children": [22, 23, 24, 25]
						},
						{
							"name": "group",
							"origin": [0, 0, 0],
							"color": 0,
							"children": [26, 27, 28, 29]
						},
						30,
						31,
						32,
						33
					]
				},
				{
					"name": "group",
					"origin": [8, 8, 8],
					"color": 0,
					"children": [
						34,
						35,
						36,
						37,
						38,
						39,
						40,
						41,
						42,
						43,
						44,
						45,
						46,
						{
							"name": "group",
							"origin": [8, 8, 8],
							"color": 0,
							"children": [47, 48, 49, 50, 51, 52, 53]
						}
					]
				}
			]
		}
	]
}