{
    "lines": [
        [1.4197759014611069, 0, -0.21923121532050316, 0.7846087228595973, 0, 0.043863644430496174],
        [1.4197759014611069, 0, -0.21923121532050316, 1.658953046689288, 0, 0.35819349249905097],
        [1.658953046689288, 0, 0.35819349249905097, 1.0237858680877785, 0, 0.6212883522500503],
        [0.7846087228595973, 0, 0.043863644430496174, 1.0237858680877785, 0, 0.6212883522500503],

        [1.4197759014611069, 0.4375, -0.21923121532050316, 0.7846087228595973, 0.4375, 0.043863644430496174],
        [1.4197759014611069, 0.4375, -0.21923121532050316, 1.658953046689288, 0.4375, 0.35819349249905097],
        [1.658953046689288, 0.4375, 0.35819349249905097, 1.0237858680877785, 0.4375, 0.6212883522500503],
        [0.7846087228595973, 0.4375, 0.043863644430496174, 1.0237858680877785, 0.4375, 0.6212883522500503],

        [0.7846087228595973, 0.4375, 0.043863644430496174, 0.7846087228595973, 0, 0.043863644430496174],
        [1.4197759014611069, 0.4375, -0.21923121532050316, 1.4197759014611069, 0, -0.21923121532050316],
        [1.658953046689288, 0.4375, 0.35819349249905097, 1.658953046689288, 0, 0.35819349249905097],
        [1.0237858680877785, 0.4375, 0.6212883522500503, 1.0237858680877785, 0, 0.6212883522500503],

        [0.7606910083367793, 0, -0.013878826351459317, 0.06778135895331422, 0, 0.2731337479223581],
        [0.7606910083367793, 0, -0.013878826351459317, 1.0477035826105965, 0, 0.6790308230320057],
        [1.0477035826105965, 0, 0.6790308230320057, 0.35479393322713165, 0, 0.9660433973058231],
        [0.06778135895331422, 0, 0.2731337479223581, 0.35479393322713165, 0, 0.9660433973058231],

        [0.7606910083367793, 0.75, -0.013878826351459317, 0.06778135895331422, 0.75, 0.2731337479223581],
        [0.7606910083367793, 0.75, -0.013878826351459317, 1.0477035826105965, 0.75, 0.6790308230320057],
        [1.0477035826105965, 0.75, 0.6790308230320057, 0.35479393322713165, 0.75, 0.9660433973058231],
        [0.06778135895331422, 0.75, 0.2731337479223581, 0.35479393322713165, 0.75, 0.9660433973058231],

        [0.06778135895331422, 0.75, 0.2731337479223581, 0.06778135895331422, 0, 0.2731337479223581],
        [0.7606910083367793, 0.75, -0.013878826351459317, 0.7606910083367793, 0, -0.013878826351459317],
        [1.0477035826105965, 0.75, 0.6790308230320057, 1.0477035826105965, 0, 0.6790308230320057],
        [0.35479393322713165, 0.75, 0.9660433973058231, 0.35479393322713165, 0, 0.9660433973058231],

        [0.5198140834726384, 0.75, 0.2211946878265421, 0.28884420034481667, 0.75, 0.3168655459178146],
        [0.5198140834726384, 0.75, 0.2211946878265421, 0.5676495125182746, 0.75, 0.33667962939045293],
        [0.5676495125182746, 0.75, 0.33667962939045293, 0.33667962939045293, 0.75, 0.4323504874817254],
        [0.28884420034481667, 0.75, 0.3168655459178146, 0.33667962939045293, 0.75, 0.4323504874817254],

        [0.5198140834726384, 0.9375, 0.2211946878265421, 0.28884420034481667, 0.9375, 0.3168655459178146],
        [0.5198140834726384, 0.9375, 0.2211946878265421, 0.5676495125182746, 0.9375, 0.33667962939045293],
        [0.5676495125182746, 0.9375, 0.33667962939045293, 0.33667962939045293, 0.9375, 0.4323504874817254],
        [0.28884420034481667, 0.9375, 0.3168655459178146, 0.33667962939045293, 0.9375, 0.4323504874817254],

        [0.28884420034481667, 0.9375, 0.3168655459178146, 0.28884420034481667, 0.75, 0.3168655459178146],
        [0.5198140834726384, 0.9375, 0.2211946878265421, 0.5198140834726384, 0.75, 0.2211946878265421],
        [0.5676495125182746, 0.9375, 0.33667962939045293, 0.5676495125182746, 0.75, 0.33667962939045293],
        [0.33667962939045293, 0.9375, 0.4323504874817254, 0.33667962939045293, 0.75, 0.4323504874817254],

        [0.6633203706095471, 0.75, 0.5676495125182746, 0.4323504874817254, 0.75, 0.6633203706095471],
        [0.6633203706095471, 0.75, 0.5676495125182746, 0.7111557996551833, 0.75, 0.6831344540821854],
        [0.7111557996551833, 0.75, 0.6831344540821854, 0.48018591652736164, 0.75, 0.7788053121734579],
        [0.4323504874817254, 0.75, 0.6633203706095471, 0.48018591652736164, 0.75, 0.7788053121734579],

        [0.6633203706095471, 0.9375, 0.5676495125182746, 0.4323504874817254, 0.9375, 0.6633203706095471],
        [0.6633203706095471, 0.9375, 0.5676495125182746, 0.7111557996551833, 0.9375, 0.6831344540821854],
        [0.7111557996551833, 0.9375, 0.6831344540821854, 0.48018591652736164, 0.9375, 0.7788053121734579],
        [0.4323504874817254, 0.9375, 0.6633203706095471, 0.48018591652736164, 0.9375, 0.7788053121734579],

        [0.4323504874817254, 0.9375, 0.6633203706095471, 0.4323504874817254, 0.75, 0.6633203706095471],
        [0.6633203706095471, 0.9375, 0.5676495125182746, 0.6633203706095471, 0.75, 0.5676495125182746],
        [0.7111557996551833, 0.9375, 0.6831344540821854, 0.7111557996551833, 0.75, 0.6831344540821854],
        [0.48018591652736164, 0.9375, 0.7788053121734579, 0.48018591652736164, 0.75, 0.7788053121734579]
    ]
}