{
    "lines": [
        [0.1875, 0, -0.625, 0.1875, 0, 0.0625],
        [0.1875, 0, -0.625, 0.8125, 0, -0.625],
        [0.8125, 0, -0.625, 0.8125, 0, 0.0625],
        [0.1875, 0, 0.0625, 0.8125, 0, 0.0625],

        [0.1875, 0.4375, -0.625, 0.1875, 0.4375, 0.0625],
        [0.1875, 0.4375, -0.625, 0.8125, 0.4375, -0.625],
        [0.8125, 0.4375, -0.625, 0.8125, 0.4375, 0.0625],
        [0.1875, 0.4375, 0.0625, 0.8125, 0.4375, 0.0625],

        [0.1875, 0.4375, 0.0625, 0.1875, 0, 0.0625],
        [0.1875, 0.4375, -0.625, 0.1875, 0, -0.625],
        [0.8125, 0.4375, -0.625, 0.8125, 0, -0.625],
        [0.8125, 0.4375, 0.0625, 0.8125, 0, 0.0625],

        [0.125, 0, 0.0625, 0.125, 0, 0.8125],
        [0.125, 0, 0.0625, 0.875, 0, 0.0625],
        [0.875, 0, 0.0625, 0.875, 0, 0.8125],
        [0.125, 0, 0.8125, 0.875, 0, 0.8125],

        [0.125, 0.75, 0.0625, 0.125, 0.75, 0.8125],
        [0.125, 0.75, 0.0625, 0.875, 0.75, 0.0625],
        [0.875, 0.75, 0.0625, 0.875, 0.75, 0.8125],
        [0.125, 0.75, 0.8125, 0.875, 0.75, 0.8125],

        [0.125, 0.75, 0.8125, 0.125, 0, 0.8125],
        [0.125, 0.75, 0.0625, 0.125, 0, 0.0625],
        [0.875, 0.75, 0.0625, 0.875, 0, 0.0625],
        [0.875, 0.75, 0.8125, 0.875, 0, 0.8125],

        [0.25, 0.75, 0.375, 0.25, 0.75, 0.625],
        [0.25, 0.75, 0.375, 0.375, 0.75, 0.375],
        [0.375, 0.75, 0.375, 0.375, 0.75, 0.625],
        [0.25, 0.75, 0.625, 0.375, 0.75, 0.625],

        [0.25, 0.9375, 0.375, 0.25, 0.9375, 0.625],
        [0.25, 0.9375, 0.375, 0.375, 0.9375, 0.375],
        [0.375, 0.9375, 0.375, 0.375, 0.9375, 0.625],
        [0.25, 0.9375, 0.625, 0.375, 0.9375, 0.625],

        [0.25, 0.9375, 0.625, 0.25, 0.75, 0.625],
        [0.25, 0.9375, 0.375, 0.25, 0.75, 0.375],
        [0.375, 0.9375, 0.375, 0.375, 0.75, 0.375],
        [0.375, 0.9375, 0.625, 0.375, 0.75, 0.625],

        [0.625, 0.75, 0.375, 0.625, 0.75, 0.625],
        [0.625, 0.75, 0.375, 0.75, 0.75, 0.375],
        [0.75, 0.75, 0.375, 0.75, 0.75, 0.625],
        [0.625, 0.75, 0.625, 0.75, 0.75, 0.625],

        [0.625, 0.9375, 0.375, 0.625, 0.9375, 0.625],
        [0.625, 0.9375, 0.375, 0.75, 0.9375, 0.375],
        [0.75, 0.9375, 0.375, 0.75, 0.9375, 0.625],
        [0.625, 0.9375, 0.625, 0.75, 0.9375, 0.625],

        [0.625, 0.9375, 0.625, 0.625, 0.75, 0.625],
        [0.625, 0.9375, 0.375, 0.625, 0.75, 0.375],
        [0.75, 0.9375, 0.375, 0.75, 0.75, 0.375],
        [0.75, 0.9375, 0.625, 0.75, 0.75, 0.625]
    ]
}