{
    "lines": [
        [0.1685436963188059, 0.5625, 0.12434952249464659, 0.12434952249464665, 0.5625, 0.16854369631880584],
        [0.1685436963188059, 0.5625, 0.12434952249464659, 0.8756504775053533, 0.5625, 0.8314563036811942],
        [0.8756504775053533, 0.5625, 0.8314563036811942, 0.8314563036811942, 0.5625, 0.8756504775053534],
        [0.12434952249464665, 0.5625, 0.16854369631880584, 0.8314563036811942, 0.5625, 0.8756504775053534],

        [0.1685436963188059, 1.125, 0.12434952249464659, 0.12434952249464665, 1.125, 0.16854369631880584],
        [0.1685436963188059, 1.125, 0.12434952249464659, 0.8756504775053533, 1.125, 0.8314563036811942],
        [0.8756504775053533, 1.125, 0.8314563036811942, 0.8314563036811942, 1.125, 0.8756504775053534],
        [0.12434952249464665, 1.125, 0.16854369631880584, 0.8314563036811942, 1.125, 0.8756504775053534],

        [0.12434952249464665, 1.125, 0.16854369631880584, 0.12434952249464665, 0.5625, 0.16854369631880584],
        [0.1685436963188059, 1.125, 0.12434952249464659, 0.1685436963188059, 0.5625, 0.12434952249464659],
        [0.8756504775053533, 1.125, 0.8314563036811942, 0.8756504775053533, 0.5625, 0.8314563036811942],
        [0.8314563036811942, 1.125, 0.8756504775053534, 0.8314563036811942, 0.5625, 0.8756504775053534],

        [0.4779029130879204, 0, 0.4337087392637612, 0.4337087392637612, 0, 0.4779029130879204],
        [0.4779029130879204, 0, 0.4337087392637612, 0.5662912607362388, 0, 0.5220970869120796],
        [0.5662912607362388, 0, 0.5220970869120796, 0.5220970869120796, 0, 0.5662912607362388],
        [0.4337087392637612, 0, 0.4779029130879204, 0.5220970869120796, 0, 0.5662912607362388],

        [0.4779029130879204, 0.5625, 0.4337087392637612, 0.4337087392637612, 0.5625, 0.4779029130879204],
        [0.4779029130879204, 0.5625, 0.4337087392637612, 0.5662912607362388, 0.5625, 0.5220970869120796],
        [0.5662912607362388, 0.5625, 0.5220970869120796, 0.5220970869120796, 0.5625, 0.5662912607362388],
        [0.4337087392637612, 0.5625, 0.4779029130879204, 0.5220970869120796, 0.5625, 0.5662912607362388],

        [0.4337087392637612, 0.5625, 0.4779029130879204, 0.4337087392637612, 0, 0.4779029130879204],
        [0.4779029130879204, 0.5625, 0.4337087392637612, 0.4779029130879204, 0, 0.4337087392637612],
        [0.5662912607362388, 0.5625, 0.5220970869120796, 0.5662912607362388, 0, 0.5220970869120796],
        [0.5220970869120796, 0.5625, 0.5662912607362388, 0.5220970869120796, 0, 0.5662912607362388]
    ]
}