{
    "lines": [
        [0.09169907347613238, 0, 0.3308762187043134, 0.3308762187043134, 0, 0.9083009265238676],
        [0.09169907347613238, 0, 0.3308762187043134, 0.6691237812956866, 0, 0.09169907347613238],
        [0.6691237812956866, 0, 0.09169907347613238, 0.9083009265238676, 0, 0.6691237812956866],
        [0.3308762187043134, 0, 0.9083009265238676, 0.9083009265238676, 0, 0.6691237812956866],

        [0.09169907347613238, 0.625, 0.3308762187043134, 0.3308762187043134, 0.625, 0.9083009265238676],
        [0.09169907347613238, 0.625, 0.3308762187043134, 0.6691237812956866, 0.625, 0.09169907347613238],
        [0.6691237812956866, 0.625, 0.09169907347613238, 0.9083009265238676, 0.625, 0.6691237812956866],
        [0.3308762187043134, 0.625, 0.9083009265238676, 0.9083009265238676, 0.625, 0.6691237812956866],

        [0.3308762187043134, 0.625, 0.9083009265238676, 0.3308762187043134, 0, 0.9083009265238676],
        [0.09169907347613238, 0.625, 0.3308762187043134, 0.09169907347613238, 0, 0.3308762187043134],
        [0.6691237812956866, 0.625, 0.09169907347613238, 0.6691237812956866, 0, 0.09169907347613238],
        [0.9083009265238676, 0.625, 0.6691237812956866, 0.9083009265238676, 0, 0.6691237812956866]
    ]
}