{
    "lines": [
        [0.1875, 0.25, 0.4375, 0.1875, 0.25, 1.0625],
        [0.1875, 0.25, 0.4375, 0.8125, 0.25, 0.4375],
        [0.8125, 0.25, 0.4375, 0.8125, 0.25, 1.0625],
        [0.1875, 0.25, 1.0625, 0.8125, 0.25, 1.0625],

        [0.1875, 0.875, 0.4375, 0.1875, 0.875, 1.0625],
        [0.1875, 0.875, 0.4375, 0.8125, 0.875, 0.4375],
        [0.8125, 0.875, 0.4375, 0.8125, 0.875, 1.0625],
        [0.1875, 0.875, 1.0625, 0.8125, 0.875, 1.0625],

        [0.1875, 0.875, 1.0625, 0.1875, 0.25, 1.0625],
        [0.1875, 0.875, 0.4375, 0.1875, 0.25, 0.4375],
        [0.8125, 0.875, 0.4375, 0.8125, 0.25, 0.4375],
        [0.8125, 0.875, 1.0625, 0.8125, 0.25, 1.0625]
    ]
}