{
  "general": {
    "debug": false,
    "itemModNameTooltip": false,
    "bossBarOverlapMode": "PUSH_DOWN",
    "builtinCamouflage": true,
    "ttsMode": "PRESS",
    "fluidMode": "ANY",
    "reachDistance": 0.0,
    "displayEntities": true,
    "displayBosses": false,
    "displayMode": "TOGGLE",
    "displayTooltip": true,
    "displayBlocks": true,
    "hideFromDebug": true,
    "hideFromTabList": true,
    "enableTextToSpeech": false,
    "hintOverlayToggle": true,
    "hintNarratorToggle": true,
    "previewOverlay": true
  },
  "overlay": {
    "alpha": 0.25,
    "iconMode": "TOP",
    "animation": true,
    "disappearingDelay": 0.0,
    "overlaySquare": true,
    "flipMainHand": false,
    "autoScaleThreshold": 0.4,
    "overlayPosY": 0.01,
    "overlayScale": 0.66,
    "overlayAnchorX": 1.0,
    "overlayAnchorY": 1.0,
    "activeTheme": "jade:create",
    "themesHash": -328442023,
    "overlayPosX": 0.99
  },
  "formatting": {
    "modName": "§9§o%s"
  }
}