{
	"credit": "Made with Blockbench",
	"texture_size": [32, 32],
	"textures": {
		"0": "item/shotgun",
		"particle": "item/shotgun"
	},
	"elements": [
		{
			"from": [4.5, 6, -3],
			"to": [11.5, 10, 13],
			"rotation": {"angle": 0, "axis": "y", "origin": [8.5, 7.25, 9.90331]},
			"faces": {
				"north": {"uv": [8, 0, 11.5, 2], "texture": "#0"},
				"east": {"uv": [0, 3.5, 8, 5.5], "texture": "#0"},
				"south": {"uv": [8, 0, 11.5, 2], "texture": "#0"},
				"west": {"uv": [8, 3.5, 0, 5.5], "texture": "#0"},
				"up": {"uv": [0, 3.5, 8, 0], "rotation": 90, "texture": "#0"},
				"down": {"uv": [0, 0, 8, 3.5], "rotation": 270, "texture": "#0"}
			}
		},
		{
			"from": [6.5, 11, 9],
			"to": [9.5, 14, 16],
			"rotation": {"angle": 22.5, "axis": "x", "origin": [8.5, 0, 0]},
			"faces": {
				"north": {"uv": [3.5, 12, 6, 13.5], "texture": "#0"},
				"east": {"uv": [0, 12, 3.5, 13.5], "texture": "#0"},
				"south": {"uv": [3.5, 12, 6, 13.5], "texture": "#0"},
				"west": {"uv": [3.5, 12, 0, 13.5], "texture": "#0"},
				"up": {"uv": [0, 14, 3.5, 15.5], "rotation": 90, "texture": "#0"},
				"down": {"uv": [0, 14, 3.5, 15.5], "rotation": 270, "texture": "#0"}
			}
		},
		{
			"from": [6, 5, -1],
			"to": [11, 8, 6],
			"rotation": {"angle": 0, "axis": "y", "origin": [8.5, 7.25, 9.90331]},
			"faces": {
				"north": {"uv": [3.5, 12, 6, 13.5], "texture": "#0"},
				"east": {"uv": [0, 12, 3.5, 13.5], "texture": "#0"},
				"south": {"uv": [3.5, 12, 6, 13.5], "texture": "#0"},
				"west": {"uv": [3.5, 12, 0, 13.5], "texture": "#0"},
				"up": {"uv": [0, 13.5, 3.5, 16], "rotation": 90, "texture": "#0"},
				"down": {"uv": [0, 13.5, 3.5, 16], "rotation": 270, "texture": "#0"}
			}
		}
	],
	"display": {
		"thirdperson_righthand": {
			"rotation": [2.75, 0, 0],
			"translation": [0, 0.5, -4.5]
		},
		"thirdperson_lefthand": {
			"rotation": [2.75, 0, 0],
			"translation": [0, 0.5, -4.5]
		},
		"firstperson_righthand": {
			"rotation": [0, -10.5, 0],
			"translation": [1.5, 1.75, -1.5]
		},
		"ground": {
			"scale": [0.5, 0.5, 0.5]
		},
		"gui": {
			"rotation": [30, 225, 0],
			"scale": [0.8, 0.8, 0.8]
		},
		"fixed": {
			"rotation": [-90, 0, 0],
			"translation": [0, 0, -2.75],
			"scale": [2, 2, 2]
		}
	}
}