{
	"credit": "Made with Blockbench",
	"parent": "spy_big",
	"texture_size": [64, 64],
	"textures": {
		"1": "item/spyglass/3d_spyglass",
		"particle": "item/spyglass/3d_spyglass"
	},
	"elements": [
		{
			"from": [2, 7, 2],
			"to": [14, 32, 14],
			"faces": {
				"north": {"uv": [0, 0, 3, 6.25], "texture": "#1"},
				"east": {"uv": [3, 0, 6, 6.25], "texture": "#1"},
				"south": {"uv": [6, 0, 9, 6.25], "texture": "#1"},
				"west": {"uv": [0, 6.25, 3, 12.5], "texture": "#1"},
				"up": {"uv": [6, 9.25, 3, 6.25], "texture": "#1"},
				"down": {"uv": [9, 6.25, 6, 9.25], "texture": "#1"}
			}
		},
		{
			"from": [1.7, 6.7, 1.7],
			"to": [14.3, 9.3, 14.3],
			"faces": {
				"north": {"uv": [1.5, 12.75, 4.5, 13.25], "texture": "#1"},
				"east": {"uv": [4.5, 12.75, 7.5, 13.25], "texture": "#1"},
				"south": {"uv": [13, 3, 16, 3.5], "texture": "#1"},
				"west": {"uv": [13, 3.5, 16, 4], "texture": "#1"},
				"up": {"uv": [12, 3, 9, 0], "texture": "#1"},
				"down": {"uv": [12, 3, 9, 6], "texture": "#1"}
			}
		},
		{
			"from": [5, -7, 5],
			"to": [11, 7, 11],
			"faces": {
				"north": {"uv": [9, 6, 10.5, 9.5], "texture": "#1"},
				"east": {"uv": [3, 9.25, 4.5, 12.75], "texture": "#1"},
				"south": {"uv": [4.5, 9.25, 6, 12.75], "texture": "#1"},
				"west": {"uv": [6, 9.25, 7.5, 12.75], "texture": "#1"},
				"up": {"uv": [13.5, 1.5, 12, 0], "texture": "#1"},
				"down": {"uv": [13.5, 1.5, 12, 3], "texture": "#1"}
			}
		},
		{
			"from": [4.8, -7.2, 4.8],
			"to": [11.2, 7.2, 11.2],
			"faces": {
				"north": {"uv": [7.5, 9.25, 9, 12.75], "texture": "#1"},
				"east": {"uv": [9, 9.5, 10.5, 13], "texture": "#1"},
				"south": {"uv": [10.5, 6, 12, 9.5], "texture": "#1"},
				"west": {"uv": [10.5, 9.5, 12, 13], "texture": "#1"},
				"up": {"uv": [13.5, 13.5, 12, 12], "texture": "#1"},
				"down": {"uv": [1.5, 12.5, 0, 14], "texture": "#1"}
			}
		},
		{
			"from": [6, -16, 6],
			"to": [10, -7, 10],
			"faces": {
				"north": {"uv": [12, 3, 13, 5.25], "texture": "#1"},
				"east": {"uv": [12, 5.25, 13, 7.5], "texture": "#1"},
				"south": {"uv": [12, 7.5, 13, 9.75], "texture": "#1"},
				"west": {"uv": [12, 9.75, 13, 12], "texture": "#1"},
				"up": {"uv": [8.5, 13.75, 7.5, 12.75], "texture": "#1"},
				"down": {"uv": [14, 4, 13, 5], "texture": "#1"}
			}
		}
	],
	"gui_light": "front",
	"display": {
		"thirdperson_righthand": {
			"rotation": [-21.2, 0.9, 177.91],
			"translation": [-0.5, -18.25, 3.5]
		},
		"thirdperson_lefthand": {
			"rotation": [-21.2, 0.9, 177.91],
			"translation": [-0.5, -18.25, 3.5]
		},
		"firstperson_righthand": {
			"rotation": [-15.18, -24.55, -10.77],
			"translation": [10, 9.75, -8],
			"scale": [0.80273, 0.80273, 0.80273]
		},
		"firstperson_lefthand": {
			"rotation": [-15.18, -24.55, -10.77],
			"translation": [10, 9.75, -8],
			"scale": [0.80273, 0.80273, 0.80273]
		},
		"ground": {
			"rotation": [34.89, -22.42, -64.5],
			"translation": [0, 2, 0],
			"scale": [1.17773, 1.17773, 1.17773]
		},
		"gui": {
			"rotation": [77.61, 39.3, -56.16],
			"scale": [0.7207, 0.7207, 0.7207]
		},
		"head": {
			"rotation": [-89, 0, 0],
			"translation": [3.5, 0.75, -43],
			"scale": [1.5, 1.5, 1.5]
		},
		"fixed": {
			"translation": [0, 13.25, -11.75],
			"scale": [1.98047, 1.98047, 1.98047]
		}
	}
}