{
	"multipart": [
		{"apply": {"model": "block/bamboo_fence_post"}},
		{"when": {"north": "true"}, "apply": {"model": "block/bamboo_fence_side"}},
		{"when": {"east": "true"}, "apply": {"model": "block/bamboo_fence_side", "y": 90}},
		{"when": {"south": "true"}, "apply": {"model": "block/bamboo_fence_side", "y": 180}},
		{"when": {"west": "true"}, "apply": {"model": "block/bamboo_fence_side", "y": 270}}
	]
}